ficheros_previa_P1/fa_v1_tb.vcd
$date
	Wed Oct  4 10:58:06 2023
$end
$version
	Icarus Verilog
$end
$timescale
	10ps
$end
$scope module fa_vr_tb $end
$var wire 1 ! test_sum $end
$var wire 1 " test_c_out $end
$var reg 1 # test_a $end
$var reg 1 $ test_b $end
$var reg 1 % test_c_in $end
$scope module fa_1 $end
$var wire 1 # a $end
$var wire 1 $ b $end
$var wire 1 % c_in $end
$var wire 1 " c_out $end
$var wire 1 & sum1 $end
$var wire 1 ! sum $end
$var wire 1 ' carry2 $end
$var wire 1 ( carry1 $end
$scope module ha_1 $end
$var wire 1 # a $end
$var wire 1 $ b $end
$var wire 1 ( carry $end
$var wire 1 & sum $end
$upscope $end
$scope module ha_2 $end
$var wire 1 % a $end
$var wire 1 & b $end
$var wire 1 ' carry $end
$var wire 1 ! sum $end
$upscope $end
$upscope $end
$upscope $end
$enddefinitions $end
#0
$dumpvars
x(
x'
x&
0%
0$
0#
x"
x!
$end
#100
0"
0'
0(
0&
#200
0!
#2000
1#
#2100
1&
#2200
1!
#4000
1$
0#
#6000
1#
#6100
1"
0&
1(
#6200
0!
#8000
1%
0$
1#
#8100
0"
1!
1&
0(
#8200
1"
0!
1'
#10000
1$
0#
#12000
1#
#12100
0&
1(
#12200
1!
0'
